%YAML 1.1
%TAG !u! tag:unity3d.com,2011:
--- !u!1045 &1
EditorBuildSettings:
  m_ObjectHideFlags: 0
  serializedVersion: 2
  m_Scenes: []
  m_configObjects:
    com.unity.xr.arkit.PlayerSettings: {fileID: 11400000, guid: d526f51fa8ae943989db789d91044bab,
      type: 2}
    com.unity.xr.management.loader_settings: {fileID: 11400000, guid: 5835ad7036cde4dd58679856fe62daac,
      type: 2}
